…
Now the picture looks interesting. Christopher Christie, Lindsey Graham
and George Patake have the highest median, Jeb Bush has the greatest
interquartile range while Hillary Clinton and Bernard Sanders seem to
have the lowest median. But Hillary Clinton has the most outliers(big
pocket donors) than anyone else. Bernard Sanders has significant number
of outliers as well.

Now let’s examine within parties.

    ## Source: local data frame [22 x 5]
    ## Groups: party [2]
    ## 
    ##         party                cand_nm  sum_can  mean_can     n
    ##         <chr>                  <chr>    <dbl>     <dbl> <int>
    ## 1  republican          Jindal, Bobby   250.00  250.0000     1
    ## 2  republican Perry, James R. (Rick)   750.00  375.0000     2
    ## 3  republican   Gilmore, James S III  2700.00 2700.0000     1
    ## 4  republican      Pataki, George E.  3950.00 1316.6667     3
    ## 5  republican   Santorum, Richard J.  7620.10  508.0067    15
    ## 6  republican         Huckabee, Mike 11048.00  121.4066    91
    ## 7    democrat  Webb, James Henry Jr. 12100.09  711.7700    17
    ## 8  republican          Walker, Scott 46345.00  945.8163    49
    ## 9  republican             Paul, Rand 75241.48  153.5540   490
    ## 10   democrat       Lessig, Lawrence 88483.86  680.6451   130
    ## # ... with 12 more rows
…
